%YAML 1.1
%TAG !u! tag:unity3d.com,2011:
--- !u!114 &11400000
MonoBehaviour:
  m_ObjectHideFlags: 0
  m_CorrespondingSourceObject: {fileID: 0}
  m_PrefabInstance: {fileID: 0}
  m_PrefabAsset: {fileID: 0}
  m_GameObject: {fileID: 0}
  m_Enabled: 1
  m_EditorHideFlags: 0
  m_Script: {fileID: 11500000, guid: 95e66c6366d904e98bc83428217d4fd7, type: 3}
  m_Name: SampleDialogue
  m_EditorClassIdentifier: 
  _data:
    _json: '{"graph":{"variables":{"Kind":"Flow","collection":{"$content":[],"$version":"A"},"$version":"A"},"controlInputDefinitions":[{"key":"Start","label":"Start","summary":null,"hideLabel":false}],"controlOutputDefinitions":[],"valueInputDefinitions":[],"valueOutputDefinitions":[],"title":null,"summary":null,"pan":{"x":-385.5883,"y":587.4117},"zoom":1.0,"elements":[{"nest":{"source":"Macro","macro":0,"embed":null},"defaultValues":{"NpcText":{"$content":"Greetings
      friend.","$type":"System.String"},"PlayerSentence":null,"Sentence":{"$content":1,"$type":"UnityEngine.Object"},"NextSentence":null},"position":{"x":259.0,"y":453.0},"guid":"f5b0d79a-826b-4e5a-b2e9-e5f080cb735e","$version":"A","$type":"Unity.VisualScripting.SubgraphUnit","$id":"10"},{"nest":{"source":"Macro","macro":2,"embed":null},"defaultValues":{"NpcText":null,"PlayerSentence":{"$content":"(Blabber)","$type":"System.String"},"Sentence":{"$content":3,"$type":"UnityEngine.Object"},"NextSentence":null},"position":{"x":-433.0,"y":799.0},"guid":"efe6b88c-ae08-41d9-9e9c-a2e55a349998","$version":"A","$type":"Unity.VisualScripting.SubgraphUnit","$id":"13"},{"coroutine":false,"defaultValues":{},"position":{"x":-1043.0,"y":336.0},"guid":"58678f83-5eda-4671-a775-f2637a384bae","$version":"A","$type":"Unity.VisualScripting.Start","$id":"16"},{"nest":{"source":"Macro","macro":4,"embed":null},"defaultValues":{"NpcText":{"$content":"What?","$type":"System.String"},"PlayerSentence":null,"Sentence":{"$content":5,"$type":"UnityEngine.Object"},"NextSentence":null},"position":{"x":-809.0,"y":797.0},"guid":"c5ea9b1f-9bf4-4dff-a461-e761e791c14b","$version":"A","$type":"Unity.VisualScripting.SubgraphUnit","$id":"18"},{"nest":{"source":"Macro","macro":6,"embed":null},"defaultValues":{"NpcText":null,"PlayerSentence":{"$content":"How
      are you doing?","$type":"System.String"},"Sentence":{"$content":7,"$type":"UnityEngine.Object"},"NextSentence":null},"position":{"x":-438.0,"y":362.0},"guid":"a9620d78-434f-460c-a77d-c53253235880","$version":"A","$type":"Unity.VisualScripting.SubgraphUnit","$id":"21"},{"defaultValues":{},"position":{"x":-993.0,"y":971.0},"guid":"bb603a80-f3db-46a9-adac-ae0d07738f5d","$version":"A","$type":"Unity.VisualScripting.Null","$id":"24"},{"nest":{"source":"Macro","macro":8,"embed":null},"defaultValues":{"NpcText":null,"PlayerSentence":{"$content":"Go
      away.","$type":"System.String"},"Sentence":{"$content":9,"$type":"UnityEngine.Object"},"NextSentence":null},"position":{"x":-426.0,"y":577.0},"guid":"6771124d-a92f-4823-b0bb-4752be7a92bf","$version":"A","$type":"Unity.VisualScripting.SubgraphUnit","$id":"26"},{"type":"System.Collections.Generic.List`1[[Sentence,
      Assembly-CSharp, Version=0.0.0.0, Culture=neutral, PublicKeyToken=null]]","value":{"$content":[10,11,12,13],"$type":"System.Collections.Generic.List`1[[Sentence,
      Assembly-CSharp, Version=0.0.0.0, Culture=neutral, PublicKeyToken=null]]"},"defaultValues":{},"position":{"x":-28.0,"y":495.0},"guid":"003adb9a-01a6-49a5-8499-e1733df93484","$version":"A","$type":"Unity.VisualScripting.Literal","$id":"29"},{"nest":{"source":"Macro","macro":14,"embed":null},"defaultValues":{"NpcText":{"$content":"How
      rude.","$type":"System.String"},"PlayerSentence":null,"Sentence":{"$content":15,"$type":"UnityEngine.Object"},"NextSentence":null},"position":{"x":-811.0,"y":585.0},"guid":"7e901f5f-8e6e-47c1-a2ff-b79b1a7884e8","$version":"A","$type":"Unity.VisualScripting.SubgraphUnit","$id":"32"},{"nest":{"source":"Macro","macro":16,"embed":null},"defaultValues":{"NpcText":{"$content":"Good.
      Thanks for asking.","$type":"System.String"},"PlayerSentence":null,"Sentence":{"$content":17,"$type":"UnityEngine.Object"},"NextSentence":null},"position":{"x":-807.0,"y":366.0},"guid":"c503e474-8a17-4ab1-9e52-ebb02338ae9d","$version":"A","$type":"Unity.VisualScripting.SubgraphUnit","$id":"35"},{"coroutine":false,"defaultValues":{},"position":{"x":-1062.0,"y":584.0},"guid":"d6b469a9-fac2-46aa-a3ad-0dde3663a444","$version":"A","$type":"Unity.VisualScripting.Start","$id":"38"},{"coroutine":false,"defaultValues":{},"position":{"x":-1050.0,"y":800.0},"guid":"da7f27a1-bff6-4afb-87ea-a6e105e000a0","$version":"A","$type":"Unity.VisualScripting.Start","$id":"40"},{"nest":{"source":"Macro","macro":18,"embed":null},"defaultValues":{"NpcText":null,"PlayerSentence":{"$content":"Hi,
      I''m doing good.","$type":"System.String"},"Sentence":{"$content":19,"$type":"UnityEngine.Object"},"NextSentence":null},"position":{"x":-433.0,"y":156.0},"guid":"6ffa1119-7a3a-4dc6-8917-878c8d27ea7a","$version":"A","$type":"Unity.VisualScripting.SubgraphUnit","$id":"42"},{"nest":{"source":"Macro","macro":20,"embed":null},"defaultValues":{"NpcText":{"$content":"Good
      to hear.","$type":"System.String"},"PlayerSentence":null,"Sentence":{"$content":21,"$type":"UnityEngine.Object"},"NextSentence":null},"position":{"x":-805.0,"y":164.0},"guid":"16ae8bf0-4fca-4830-a384-7b67e7ed6602","$version":"A","$type":"Unity.VisualScripting.SubgraphUnit","$id":"45"},{"coroutine":false,"defaultValues":{},"position":{"x":-1043.0,"y":175.0},"guid":"4b0ffdc1-834e-4bc1-a980-1939329fcc86","$version":"A","$type":"Unity.VisualScripting.Start","$id":"48"},{"defaultValues":{},"position":{"x":-615.0,"y":993.0},"guid":"50b95786-46b9-4310-b683-72294bf7ae43","$version":"A","$type":"Unity.VisualScripting.Null","$id":"50"},{"sourceUnit":{"$ref":"32"},"sourceKey":"Out","destinationUnit":{"$ref":"26"},"destinationKey":"Start","guid":"12c294b2-9dab-4901-ad34-ddeffd0123ad","$type":"Unity.VisualScripting.ControlConnection"},{"sourceUnit":{"$ref":"38"},"sourceKey":"trigger","destinationUnit":{"$ref":"32"},"destinationKey":"Start","guid":"5558925b-52d7-47a1-b693-938e824bfba3","$type":"Unity.VisualScripting.ControlConnection"},{"sourceUnit":{"$ref":"16"},"sourceKey":"trigger","destinationUnit":{"$ref":"35"},"destinationKey":"Start","guid":"8d5088b1-5ea6-4a7f-b7f2-69df116cf8a4","$type":"Unity.VisualScripting.ControlConnection"},{"sourceUnit":{"$ref":"35"},"sourceKey":"Out","destinationUnit":{"$ref":"21"},"destinationKey":"Start","guid":"6e6491af-6227-41dd-b42a-12cf54c260c7","$type":"Unity.VisualScripting.ControlConnection"},{"sourceUnit":{"$ref":"40"},"sourceKey":"trigger","destinationUnit":{"$ref":"18"},"destinationKey":"Start","guid":"86b117e2-0453-457b-9996-4e22fd54ca3b","$type":"Unity.VisualScripting.ControlConnection"},{"sourceUnit":{"$ref":"42"},"sourceKey":"Out","destinationUnit":{"$ref":"10"},"destinationKey":"Start","guid":"5a7f61be-78dc-433e-8004-a50709d183a9","$type":"Unity.VisualScripting.ControlConnection"},{"sourceUnit":{"$ref":"48"},"sourceKey":"trigger","destinationUnit":{"$ref":"45"},"destinationKey":"Start","guid":"13f1884a-370c-40ea-b793-10913038d6bc","$type":"Unity.VisualScripting.ControlConnection"},{"sourceUnit":{"$ref":"18"},"sourceKey":"Out","destinationUnit":{"$ref":"13"},"destinationKey":"Start","guid":"bd86a839-7e83-4904-98e8-3af890f5f451","$type":"Unity.VisualScripting.ControlConnection"},{"sourceUnit":{"$ref":"45"},"sourceKey":"Out","destinationUnit":{"$ref":"42"},"destinationKey":"Start","guid":"3df846ed-070b-4b93-ab59-7e9109cc34c9","$type":"Unity.VisualScripting.ControlConnection"},{"sourceUnit":{"$ref":"24"},"sourceKey":"null","destinationUnit":{"$ref":"18"},"destinationKey":"Choices","guid":"67fd284b-4768-4d9d-8010-34e5d5c54e39","$type":"Unity.VisualScripting.ValueConnection"},{"sourceUnit":{"$ref":"45"},"sourceKey":"outSentence","destinationUnit":{"$ref":"42"},"destinationKey":"NextSentence","guid":"0789cecc-fb9b-4b05-ae50-5889dff35371","$type":"Unity.VisualScripting.ValueConnection"},{"sourceUnit":{"$ref":"50"},"sourceKey":"null","destinationUnit":{"$ref":"42"},"destinationKey":"Choices","guid":"3d451511-c134-41e8-8297-45518e0e0787","$type":"Unity.VisualScripting.ValueConnection"},{"sourceUnit":{"$ref":"24"},"sourceKey":"null","destinationUnit":{"$ref":"32"},"destinationKey":"Choices","guid":"df44f8ac-1056-44c2-adf1-447300627a69","$type":"Unity.VisualScripting.ValueConnection"},{"sourceUnit":{"$ref":"50"},"sourceKey":"null","destinationUnit":{"$ref":"26"},"destinationKey":"Choices","guid":"36af4c7c-1bd9-4fcc-b0f4-1e7085382c1b","$type":"Unity.VisualScripting.ValueConnection"},{"sourceUnit":{"$ref":"24"},"sourceKey":"null","destinationUnit":{"$ref":"45"},"destinationKey":"Choices","guid":"fc8cc80e-e75f-4243-b3a5-0a6206503a67","$type":"Unity.VisualScripting.ValueConnection"},{"sourceUnit":{"$ref":"24"},"sourceKey":"null","destinationUnit":{"$ref":"35"},"destinationKey":"Choices","guid":"1cdfd2aa-96be-4e68-bc39-181eb3895dea","$type":"Unity.VisualScripting.ValueConnection"},{"sourceUnit":{"$ref":"32"},"sourceKey":"outSentence","destinationUnit":{"$ref":"26"},"destinationKey":"NextSentence","guid":"1f07ed7e-b329-4b10-b1f6-496aa5c53932","$type":"Unity.VisualScripting.ValueConnection"},{"sourceUnit":{"$ref":"50"},"sourceKey":"null","destinationUnit":{"$ref":"21"},"destinationKey":"Choices","guid":"ce153859-89ee-4733-b0d9-e0b48d518dec","$type":"Unity.VisualScripting.ValueConnection"},{"sourceUnit":{"$ref":"50"},"sourceKey":"null","destinationUnit":{"$ref":"13"},"destinationKey":"Choices","guid":"99c39467-21f2-43ba-b52b-44a3c6998ca1","$type":"Unity.VisualScripting.ValueConnection"},{"sourceUnit":{"$ref":"29"},"sourceKey":"output","destinationUnit":{"$ref":"10"},"destinationKey":"Choices","guid":"16b0ec3d-1946-4c32-8974-2d0d85edef37","$type":"Unity.VisualScripting.ValueConnection"},{"sourceUnit":{"$ref":"35"},"sourceKey":"outSentence","destinationUnit":{"$ref":"21"},"destinationKey":"NextSentence","guid":"3e217edd-44c5-4ebd-bd5f-2864fd2eedef","$type":"Unity.VisualScripting.ValueConnection"},{"sourceUnit":{"$ref":"18"},"sourceKey":"outSentence","destinationUnit":{"$ref":"13"},"destinationKey":"NextSentence","guid":"a8553673-e50f-4c7a-90a7-f398b5178928","$type":"Unity.VisualScripting.ValueConnection"}],"$version":"A"}}'
    _objectReferences:
    - {fileID: 11400000, guid: 4c627042c2de3a443807ea456225caf0, type: 2}
    - {fileID: 11400000, guid: 6f83adb61283b1948b5af0272b854def, type: 2}
    - {fileID: 11400000, guid: 4c627042c2de3a443807ea456225caf0, type: 2}
    - {fileID: 11400000, guid: a6847c626fe37ea4da227488a27702c3, type: 2}
    - {fileID: 11400000, guid: 4c627042c2de3a443807ea456225caf0, type: 2}
    - {fileID: 11400000, guid: 116c596bc5de78449a9cc0c38762cca9, type: 2}
    - {fileID: 11400000, guid: 4c627042c2de3a443807ea456225caf0, type: 2}
    - {fileID: 11400000, guid: 9570d3db92efa374ab29f7df223520a9, type: 2}
    - {fileID: 11400000, guid: 4c627042c2de3a443807ea456225caf0, type: 2}
    - {fileID: 11400000, guid: 084a3b2921dbad941bce4e353c2e82f8, type: 2}
    - {fileID: 11400000, guid: 42da81537d2864741839ff9434953f3c, type: 2}
    - {fileID: 11400000, guid: 9570d3db92efa374ab29f7df223520a9, type: 2}
    - {fileID: 11400000, guid: 084a3b2921dbad941bce4e353c2e82f8, type: 2}
    - {fileID: 11400000, guid: a6847c626fe37ea4da227488a27702c3, type: 2}
    - {fileID: 11400000, guid: 4c627042c2de3a443807ea456225caf0, type: 2}
    - {fileID: 11400000, guid: f14ceb7b4922b73418a1f9b235819f59, type: 2}
    - {fileID: 11400000, guid: 4c627042c2de3a443807ea456225caf0, type: 2}
    - {fileID: 11400000, guid: 3947b02c25cf7124aa2626f5157e123a, type: 2}
    - {fileID: 11400000, guid: 4c627042c2de3a443807ea456225caf0, type: 2}
    - {fileID: 11400000, guid: 42da81537d2864741839ff9434953f3c, type: 2}
    - {fileID: 11400000, guid: 4c627042c2de3a443807ea456225caf0, type: 2}
    - {fileID: 11400000, guid: 16a96998e37203649b29e732828410ef, type: 2}
