%YAML 1.1
%TAG !u! tag:unity3d.com,2011:
--- !u!114 &11400000
MonoBehaviour:
  m_ObjectHideFlags: 0
  m_CorrespondingSourceObject: {fileID: 0}
  m_PrefabInstance: {fileID: 0}
  m_PrefabAsset: {fileID: 0}
  m_GameObject: {fileID: 0}
  m_Enabled: 1
  m_EditorHideFlags: 0
  m_Script: {fileID: 11500000, guid: aa69f4bb65c90054685e91592c4d509f, type: 3}
  m_Name: Apple
  m_EditorClassIdentifier: 
  _sprite: {fileID: 21300000, guid: 90a1c99677435ae43b8a83058f7212f2, type: 3}
  _shape:
    _width: 1
    _height: 1
    _shape: 00
  _type: 3
  _canDrop: 1
  _gameObject: {fileID: 0}
  _stat: 0
  _price: 0
  _position: {x: 4, y: 3}
