%YAML 1.1
%TAG !u! tag:unity3d.com,2011:
--- !u!114 &11400000
MonoBehaviour:
  m_ObjectHideFlags: 0
  m_CorrespondingSourceObject: {fileID: 0}
  m_PrefabInstance: {fileID: 0}
  m_PrefabAsset: {fileID: 0}
  m_GameObject: {fileID: 0}
  m_Enabled: 1
  m_EditorHideFlags: 0
  m_Script: {fileID: 11500000, guid: 95e66c6366d904e98bc83428217d4fd7, type: 3}
  m_Name: Example Dialogue
  m_EditorClassIdentifier: 
  _data:
    _json: '{"graph":{"variables":{"Kind":"Flow","collection":{"$content":[],"$version":"A"},"$version":"A"},"controlInputDefinitions":[],"controlOutputDefinitions":[],"valueInputDefinitions":[],"valueOutputDefinitions":[],"title":null,"summary":null,"pan":{"x":-811.0,"y":-166.0},"zoom":1.0,"elements":[{"nest":{"source":"Macro","macro":0,"embed":null},"defaultValues":{"NpcText":{"$content":"Greeting
      developer!","$type":"System.String"},"PlayerSentence":null,"Sentence":{"$content":1,"$type":"UnityEngine.Object"},"NextSentence":null},"position":{"x":169.0,"y":-252.0},"guid":"38d64b9e-3fcb-4952-b777-9cb285dc6f75","$version":"A","$type":"Unity.VisualScripting.SubgraphUnit","$id":"9"},{"nest":{"source":"Macro","macro":2,"embed":null},"defaultValues":{"NpcText":{"$content":"How
      is your development doing?","$type":"System.String"},"PlayerSentence":null,"Sentence":{"$content":3,"$type":"UnityEngine.Object"},"NextSentence":null},"position":{"x":-354.0,"y":-251.0},"guid":"c13eaf2e-cffe-4f2e-b10f-85c17d2cb607","$version":"A","$type":"Unity.VisualScripting.SubgraphUnit","$id":"12"},{"defaultValues":{},"position":{"x":-24.0,"y":-12.0},"guid":"39738758-f2b1-48a1-8d80-6ab90ea79bbc","$version":"A","$type":"Unity.VisualScripting.Null","$id":"15"},{"nest":{"source":"Macro","macro":4,"embed":null},"defaultValues":{"NpcText":null,"PlayerSentence":{"$content":"I''m
      doing good.","$type":"System.String"},"Sentence":{"$content":5,"$type":"UnityEngine.Object"},"NextSentence":null},"position":{"x":-959.0,"y":-368.0},"guid":"6739a058-420c-432b-b5ab-97ebef4c33e2","$version":"A","$type":"Unity.VisualScripting.SubgraphUnit","$id":"17"},{"nest":{"source":"Macro","macro":6,"embed":null},"defaultValues":{"NpcText":{"$content":"Splendid
      to hear!","$type":"System.String"},"PlayerSentence":null,"Sentence":{"$content":7,"$type":"UnityEngine.Object"},"NextSentence":null},"position":{"x":-1336.0,"y":-364.0},"guid":"52c14eea-bf9b-4c35-bdff-82e8c8d396e5","$version":"A","$type":"Unity.VisualScripting.SubgraphUnit","$id":"20"},{"coroutine":false,"defaultValues":{},"position":{"x":-1506.0,"y":-370.0},"guid":"d378e7c9-85c9-4c97-894d-8eb905a4d597","$version":"A","$type":"Unity.VisualScripting.Start","$id":"23"},{"defaultValues":{},"position":{"x":-1475.0,"y":-179.0},"guid":"db888322-4dfc-4853-ab53-5555a43e8319","$version":"A","$type":"Unity.VisualScripting.Null","$id":"25"},{"inputCount":1,"defaultValues":{},"position":{"x":-536.0,"y":-120.0},"guid":"de08edfb-c1e9-4689-b0b8-813772756a1d","$version":"A","$type":"Unity.VisualScripting.CreateList","$id":"27"},{"sourceUnit":{"$ref":"12"},"sourceKey":"Out","destinationUnit":{"$ref":"9"},"destinationKey":"Start","guid":"a8458048-a47c-45c8-bcab-194377e37e13","$type":"Unity.VisualScripting.ControlConnection"},{"sourceUnit":{"$ref":"17"},"sourceKey":"Out","destinationUnit":{"$ref":"12"},"destinationKey":"Start","guid":"0d228e0e-f1b1-4189-a95c-6f65023eced3","$type":"Unity.VisualScripting.ControlConnection"},{"sourceUnit":{"$ref":"20"},"sourceKey":"Out","destinationUnit":{"$ref":"17"},"destinationKey":"Start","guid":"52eae815-ff03-4523-8e64-96fe55a4bf73","$type":"Unity.VisualScripting.ControlConnection"},{"sourceUnit":{"$ref":"23"},"sourceKey":"trigger","destinationUnit":{"$ref":"20"},"destinationKey":"Start","guid":"3fd8747b-7508-4433-b28a-393db6cb89bd","$type":"Unity.VisualScripting.ControlConnection"},{"sourceUnit":{"$ref":"12"},"sourceKey":"outSentence","destinationUnit":{"$ref":"9"},"destinationKey":"NextSentence","guid":"3374e11c-8148-435e-99de-3a4cdd583f80","$type":"Unity.VisualScripting.ValueConnection"},{"sourceUnit":{"$ref":"15"},"sourceKey":"null","destinationUnit":{"$ref":"9"},"destinationKey":"Choices","guid":"2ae1714a-1e93-4863-a86d-53f8585a55e5","$type":"Unity.VisualScripting.ValueConnection"},{"sourceUnit":{"$ref":"20"},"sourceKey":"outSentence","destinationUnit":{"$ref":"17"},"destinationKey":"NextSentence","guid":"48e8e14d-876a-4bed-a368-22b1e42c0897","$type":"Unity.VisualScripting.ValueConnection"},{"sourceUnit":{"$ref":"25"},"sourceKey":"null","destinationUnit":{"$ref":"20"},"destinationKey":"Choices","guid":"4a136e7f-010e-42f1-a428-5dd0ba5b6449","$type":"Unity.VisualScripting.ValueConnection"},{"sourceUnit":{"$ref":"25"},"sourceKey":"null","destinationUnit":{"$ref":"17"},"destinationKey":"Choices","guid":"23ff48a5-3228-4a41-9d2a-df90396d432b","$type":"Unity.VisualScripting.ValueConnection"},{"sourceUnit":{"$ref":"17"},"sourceKey":"outSentence","destinationUnit":{"$ref":"27"},"destinationKey":"0","guid":"6d03e824-34c8-4093-88ee-6d34ec66db19","$type":"Unity.VisualScripting.ValueConnection"},{"sourceUnit":{"$ref":"27"},"sourceKey":"list","destinationUnit":{"$ref":"12"},"destinationKey":"Choices","guid":"1caa7e12-42c8-4750-ad36-f7643abdce15","$type":"Unity.VisualScripting.ValueConnection"}],"$version":"A"}}'
    _objectReferences:
    - {fileID: 11400000, guid: 4c627042c2de3a443807ea456225caf0, type: 2}
    - {fileID: 11400000, guid: 6f83adb61283b1948b5af0272b854def, type: 2}
    - {fileID: 11400000, guid: 4c627042c2de3a443807ea456225caf0, type: 2}
    - {fileID: 11400000, guid: 9570d3db92efa374ab29f7df223520a9, type: 2}
    - {fileID: 11400000, guid: 4c627042c2de3a443807ea456225caf0, type: 2}
    - {fileID: 11400000, guid: 42da81537d2864741839ff9434953f3c, type: 2}
    - {fileID: 11400000, guid: 4c627042c2de3a443807ea456225caf0, type: 2}
    - {fileID: 11400000, guid: 16a96998e37203649b29e732828410ef, type: 2}
