%YAML 1.1
%TAG !u! tag:unity3d.com,2011:
--- !u!114 &11400000
MonoBehaviour:
  m_ObjectHideFlags: 0
  m_CorrespondingSourceObject: {fileID: 0}
  m_PrefabInstance: {fileID: 0}
  m_PrefabAsset: {fileID: 0}
  m_GameObject: {fileID: 0}
  m_Enabled: 1
  m_EditorHideFlags: 0
  m_Script: {fileID: 11500000, guid: be182cbcd0fea0b4dbe5422bd3078efa, type: 3}
  m_Name: Reply4
  m_EditorClassIdentifier: 
  playerText: 
  npcText: 
  nextSentence: {fileID: 0}
  choices: []
