%YAML 1.1
%TAG !u! tag:unity3d.com,2011:
--- !u!162 &1
EditorUserSettings:
  m_ObjectHideFlags: 0
  serializedVersion: 4
  m_ConfigSettings:
    RecentlyUsedSceneGuid-0:
      value: 5503045704565c5f0f085d2314700c44414f4b2f7a7a20332f284a37b5b33068
      flags: 0
    RecentlyUsedSceneGuid-1:
      value: 5400520404545a030c5a5c2343220a44414f1b2f797123342e784b6bb7b7376d
      flags: 0
    RecentlyUsedSceneGuid-2:
      value: 55500c530002505f0c0c542144730644104e1c2b7e2c7f677b7a1f37e1b8326c
      flags: 0
    RecentlyUsedSceneGuid-3:
      value: 5a07025256535f02085e092045215e44414e407a282c2360797a1930b0e3316f
      flags: 0
    RecentlyUsedSceneGuid-4:
      value: 07050c0507050f0b0b5e547244250c44454e1e7c2d7020327c7c1860e4b5643c
      flags: 0
    RecentlyUsedSceneGuid-5:
      value: 53570c5550535e5d095d5924427b0744474e497b7f797362287b4f63b2e1633b
      flags: 0
    RecentlyUsedSceneGuid-6:
      value: 5507560251535c59585c0a74157a0f44174f482b2f7c22672b2f4d31e6e3363d
      flags: 0
    RecentlyUsedSceneGuid-7:
      value: 0754565500545c5a54585c2340775e44124e412c2e7f7e617d714830bab7316f
      flags: 0
    RecentlyUsedSceneGuid-8:
      value: 020004535604080d5b5b557141760a4445151a282a292232287e1963b0b86369
      flags: 0
    RecentlyUsedSceneGuid-9:
      value: 0553020704055c0f090d097741770b1143154b297f7174667d281f6be0b1613c
      flags: 0
    vcSharedLogLevel:
      value: 0d5e400f0650
      flags: 0
  m_VCAutomaticAdd: 1
  m_VCDebugCom: 0
  m_VCDebugCmd: 0
  m_VCDebugOut: 0
  m_SemanticMergeMode: 2
  m_DesiredImportWorkerCount: 4
  m_StandbyImportWorkerCount: 2
  m_IdleImportWorkerShutdownDelay: 60000
  m_VCShowFailedCheckout: 1
  m_VCOverwriteFailedCheckoutAssets: 1
  m_VCProjectOverlayIcons: 1
  m_VCHierarchyOverlayIcons: 1
  m_VCOtherOverlayIcons: 1
  m_VCAllowAsyncUpdate: 1
  m_ArtifactGarbageCollection: 1
